…
```r
#Creating index for births and plotting it
syntyvyysindeksi <- read_csv("raw/fi/syntyvyysindex_sa.csv", col_types = cols(time = col_date(format = "%Y-%m-%d"), 
                                                                              value = col_number()))
syntyvyysindeksi$month <- floor_date(syntyvyysindeksi$time, "month")
syntyvyysindeksi %>% group_by(month) %>% summarize(mean = mean(value))
```

```
## # A tibble: 203 × 2
##    month        mean
##    <date>      <dbl>
##  1 2006-01-01 -2.45 
##  2 2006-02-01 -0.872
##  3 2006-03-01 -1.72 
##  4 2006-04-01 -1.18 
##  5 2006-05-01 -1.47 
##  6 2006-06-01 -1.10 
##  7 2006-07-01 -0.229
##  8 2006-08-01 -0.201
##  9 2006-09-01 -1.48 
## 10 2006-10-01 -1.45 
## # … with 193 more rows
```
…
